<?xml version="1.0" encoding="UTF-8" standalone="no"?>
<!-- Generator: Adobe Illustrator 19.1.0, SVG Export Plug-In . SVG Version: 6.00 Build 0)  -->

<svg
   xmlns:dc="http://purl.org/dc/elements/1.1/"
   xmlns:cc="http://creativecommons.org/ns#"
   xmlns:rdf="http://www.w3.org/1999/02/22-rdf-syntax-ns#"
   xmlns:svg="http://www.w3.org/2000/svg"
   xmlns="http://www.w3.org/2000/svg"
   xmlns:sodipodi="http://sodipodi.sourceforge.net/DTD/sodipodi-0.dtd"
   xmlns:inkscape="http://www.inkscape.org/namespaces/inkscape"
   version="1.1"
   id="Ebene_1"
   x="0px"
   y="0px"
   viewBox="0 0 225 54.4"
   xml:space="preserve"
   sodipodi:docname="innoq-logo.svg"
   width="225"
   height="54.400002"
   inkscape:version="0.92.4 (5da689c313, 2019-01-14)"><metadata
   id="metadata21"><rdf:RDF><cc:Work
       rdf:about=""><dc:format>image/svg+xml</dc:format><dc:type
         rdf:resource="http://purl.org/dc/dcmitype/StillImage" /><dc:title></dc:title></cc:Work></rdf:RDF></metadata><defs
   id="defs19" /><sodipodi:namedview
   pagecolor="#ffffff"
   bordercolor="#666666"
   borderopacity="1"
   objecttolerance="10"
   gridtolerance="10"
   guidetolerance="10"
   inkscape:pageopacity="0"
   inkscape:pageshadow="2"
   inkscape:window-width="992"
   inkscape:window-height="480"
   id="namedview17"
   showgrid="false"
   fit-margin-top="0"
   fit-margin-left="0"
   fit-margin-right="0"
   fit-margin-bottom="0"
   inkscape:zoom="0.79301074"
   inkscape:cx="113.35"
   inkscape:cy="27.499997"
   inkscape:window-x="0"
   inkscape:window-y="27"
   inkscape:window-maximized="0"
   inkscape:current-layer="Ebene_1" />
<style
   type="text/css"
   id="style2">
	.st0{fill:#FF4D67;}
	.st1{fill:#24244C;}
</style>
<g
   id="g14"
   transform="translate(-96.400002,-121.9)">
	<rect
   x="96.400002"
   y="122.9"
   class="st0"
   width="12.5"
   height="52.5"
   id="rect4"
   style="fill:#ff4d67" />
	<polygon
   class="st0"
   points="186.8,122.9 186.8,155 162.8,122.9 157.3,122.9 150.8,122.9 150.8,122.9 150.8,155 126.9,122.9 114.9,122.9 114.9,175.4 127.4,175.4 127.4,143.4 151.3,175.4 153.4,175.4 160.5,175.4 163.4,175.4 163.4,143.4 187.3,175.4 199.3,175.4 199.3,122.9 "
   id="polygon6"
   style="fill:#ff4d67" />
	<g
   id="g12">
		<path
   class="st0"
   d="m 231.3,133.9 c 8.5,0 14.6,6.2 14.6,15.2 0,9 -6.1,15.2 -14.6,15.2 -8.6,0 -14.6,-6.2 -14.6,-15.2 0,-9 6.1,-15.2 14.6,-15.2 m 0,-12 c -16.2,0 -27.7,11.6 -27.7,27.2 0,15.6 11.5,27.2 27.7,27.2 16.2,0 27.7,-11.6 27.7,-27.2 0,-15.6 -11.5,-27.2 -27.7,-27.2"
   id="path8"
   inkscape:connector-curvature="0"
   style="fill:#ff4d67" />
		<path
   class="st1"
   d="m 290.2,133.9 c 8.5,0 14.6,6.2 14.6,15.2 0,1.7 -0.2,3.3 -0.6,4.8 l -1.7,-2.3 h -13.6 l 8.3,11.1 c -2,1 -4.4,1.6 -6.9,1.6 -8.5,0 -14.6,-6.2 -14.6,-15.2 -0.1,-8.9 6,-15.2 14.5,-15.2 m 0,-12 c -16.2,0 -27.7,11.6 -27.7,27.2 0,15.6 11.5,27.2 27.7,27.2 5.5,0 10.2,-1.5 14.2,-4.1 l 2.3,3.1 h 14.7 l -8.3,-11.2 c 2.9,-4.2 4.6,-9.1 4.6,-15 0.2,-15.6 -11.3,-27.2 -27.5,-27.2"
   id="path10"
   inkscape:connector-curvature="0"
   style="fill:#24244c" />
	</g>
</g>
</svg>